<svg width="24" height="25" viewBox="0 0 24 25" fill="black" xmlns="http://www.w3.org/2000/svg">
<g clip-path="url(#clip0_6_696)">
<circle cx="12" cy="12.509" r="10" fill="#F0C419"/>
<path d="M7.80925 18.509V16.829L12.1293 12.749C12.4706 12.4397 12.7213 12.1624 12.8813 11.917C13.0413 11.6717 13.1479 11.4477 13.2013 11.245C13.2653 11.0424 13.2973 10.8557 13.2973 10.685C13.2973 10.237 13.1426 9.8957 12.8333 9.66103C12.5346 9.4157 12.0919 9.29303 11.5052 9.29303C11.0359 9.29303 10.5986 9.3837 10.1933 9.56503C9.79858 9.74637 9.46258 10.029 9.18525 10.413L7.29725 9.19703C7.72392 8.55703 8.32125 8.05037 9.08925 7.67703C9.85725 7.3037 10.7426 7.11703 11.7453 7.11703C12.5773 7.11703 13.3026 7.2557 13.9213 7.53303C14.5506 7.7997 15.0359 8.17837 15.3773 8.66903C15.7293 9.1597 15.9053 9.74637 15.9053 10.429C15.9053 10.7917 15.8573 11.1544 15.7613 11.517C15.6759 11.869 15.4946 12.2424 15.2173 12.637C14.9506 13.0317 14.5559 13.4744 14.0333 13.965L10.4493 17.341L9.95325 16.397H16.2733V18.509H7.80925Z" fill="#0C2C61"/>
</g>
<defs>
<clipPath id="clip0_6_696">
<rect width="24" height="24" fill="white" transform="translate(0 0.509033)"/>
</clipPath>
</defs>
</svg>
